/*********************************************************************
Initial conditions from MADX model of PSB extraction to BT lines
*********************************************************************/

betx0              =       1.2955618357e+01 ;
bety0              =       2.2278536568e+01 ;
alfx0              =      -2.1764454621e-01 ;
alfy0              =      -5.0542803702e-02 ;
dx0                =       2.5570615502e+00 ;
dy0                =       2.9519068796e-01 ;
dpx0               =       7.5020371725e-03 ;
dpy0               =      -2.2477591788e-02 ;
x0                 =       0.0000000000e+00 ;
px0                =       0.0000000000e+00 ;
