/*********************************************************************
Initial conditions from MADX model of PSB extraction to BT lines
*********************************************************************/

betx0              =       1.3384115756e+01 ;
bety0              =       2.1691675841e+01 ;
alfx0              =      -2.8474175929e-01 ;
alfy0              =       3.9178846007e-02 ;
dx0                =       2.6006495989e+00 ;
dy0                =       2.8732860069e-01 ;
dpx0               =       2.5158970835e-03 ;
dpy0               =      -2.3964006883e-02 ;
x0                 =      -7.4612220301e-03 ;
px0                =       1.8556904541e-04 ;
