/*********************************************************************
Initial conditions from MADX model of PSB extraction to BT lines
*********************************************************************/

betx0              =       5.7897973291e+01 ;
bety0              =       3.2724771063e+01 ;
alfx0              =      -5.9215094397e+00 ;
alfy0              =      -1.6663346848e+00 ;
dx0                =       5.5389453571e-01 ;
dy0                =       6.8477784270e-01 ;
dpx0               =       2.8759086420e-01 ;
dpy0               =       2.8056026621e-02 ;
x0                 =       0.0000000000e+00 ;
px0                =       0.0000000000e+00 ;
