/*********************************************************************************
Initial conditions from MADX stitched model of SPS => ti2lhcb1 for q20 optics
*********************************************************************************/

betx0              =        27.77906807000000100 ;
bety0              =       120.39920689999999581 ;
alfx0              =         0.63611879999999998 ;
alfy0              =        -2.70621899999999993 ;
dx0                =        -0.59866299999999995 ;
dy0                =         0.00000000000000000 ;
x0                 =         0.00000000000000000 ;
y0                 =         0.00000000000000000 ;
px0                =         0.00000000000000000 ;
py0                =         0.00000000000000000 ;
dpx0               =         0.01603536000000000 ;
dpy0               =         0.00000000000000000 ;
