EMIX0=4.7e-7;  ! +/- 0.7
HX0=1.2;       ! +/- 0.5

BETX0=53.9;  ! +/- 10
ALFX0=-5.3; ! +/- 1

DX0=-4.4475;  ! +/- 0.5
DPX0=-0.4175; 



EMIY0=2.2e-7;  ! +/- 0.1
HY0=1.04;      ! +/- 0.01

BETY0=6.64;  ! +/- 0.2
ALFY0=0.25; ! +/- 0.02

DY0=-0.125;
DPY0=0.0014;


dpp=0.38e-3;

INITBETA0: BETA0,
  BETX=BETX0,
  ALFX=ALFX0,
  MUX=MUX0,
  BETY=BETY0,
  ALFY=ALFY0,
  MUY=MUY0,
  X=X0,
  PX=PX0,
  Y=Y0,
  PY=PY0,
  T=T0,
  PT=PT0,
  DX=DX0,
  DPX=DPX0,
  DY=DY0,
  DPY=DPY0;
