/*********************************************************************
Initial conditions from MADX model of PSB extraction to BT lines
*********************************************************************/

betx0              =       1.0590643210e+01 ;
bety0              =       2.2234568333e+01 ;
alfx0              =      -1.6616806764e-01 ;
alfy0              =      -5.7719053254e-02 ;
dx0                =       2.5090240869e+00 ;
dy0                =       5.6580753080e-02 ;
dpx0               =       1.1330629562e-02 ;
dpy0               =      -2.8084217177e-04 ;
x0                 =       0.0000000000e+00 ;
px0                =       0.0000000000e+00 ;
