/*********************************************************************
Initial conditions from MADX model of PSB extraction to BT lines
*********************************************************************/

betx0              =       5.8185831578e+00 ;
bety0              =       4.4464361428e+00 ;
alfx0              =       1.8133978062e-01 ;
alfy0              =       2.4132789477e-01 ;
dx0                =      -1.5287813655e+00 ;
dy0                =       0.0000000000e+00 ;
dpx0               =      -3.4271396478e-03 ;
dpy0               =       0.0000000000e+00 ;
x0                 =       2.7400671202e-09 ;
px0                =      -5.9849636810e-13 ;
