/*********************************************************************
Initial conditions from MADX model of PSB extraction to BT lines
*********************************************************************/

betx0              =       5.6437838288e+00 ;
bety0              =       4.2404620778e+00 ;
alfx0              =      -5.9847792523e-02 ;
alfy0              =      -8.2512914006e-02 ;
dx0                =      -1.5026360321e+00 ;
dy0                =       0.0000000000e+00 ;
dpx0               =       4.5587305103e-02 ;
dpy0               =       0.0000000000e+00 ;
x0                 =       5.6107049968e-03 ;
px0                =      -4.4672094292e-05 ;
