/*********************************************************************
Initial conditions from MADX model of ELENA extraction to LNE00
*********************************************************************/

betx0              =   3.72899032088818e+00 ;
bety0              =   1.39064377468800e+00 ;
alfx0              =   1.97987056980402e+00 ;
alfy0              =  -9.08097034656737e-01 ;
dx0                =   1.14618973280195e+02 ;
dy0                =   0.00000000000000e+00 ;
dpx0               =  -8.07384879868848e+01 ;
dpy0               =   0.00000000000000e+00 ;
x0                 =   0.00000000000000e+00 ;
px0                =   0.00000000000000e+00 ;
