! tt2_fe_26_2010.inp
!
! initial twiss parameters for TT2 @ 26 GeV/c fast extraction
! These are the values for LHC beam when the quadrupoles
! QKE58 inside the PS are NOT used for the extraction.
!
! new measurements, QKE58 off, July 2007 (E.Benedetto)
! The measurements have been done without bunch rotation from the PS

BETX0  := 26.1431;
ALFX0  := -2.2287;
MUX0   :=  0.000000000000;
BETY0  :=  10.883;
ALFY0  :=  0.762;
MUY0   :=  0.000000000000;
X0     :=  0.000000000000;
PX0    :=  0.000000000000;
Y0     :=  0.000000000000;
PY0    :=  0.000000000000;
T0     :=  0.000000000000;
PT0    :=  0.000000000000;
DX0    :=  3.0414;
DPX0   :=  0.25256;
DY0    :=  0.024;
DPY0   := -0.014;


return;

