/*********************************************************************************
Initial conditions from MADX stitched model of PS extraction to TT10 LHC Q20 beam
*********************************************************************************/

betx0              =       3.6613359849e+01 ;
bety0              =       1.5828242518e+01 ;
alfx0              =       2.2384503053e+00 ;
alfy0              =      -9.4472773254e-01 ;
dx0                =       3.4857415246e+00 ;
dy0                =      -2.8422901682e-01 ;
dpx0               =      -2.2741165761e-01 ;
dpy0               =      -4.6194128845e-02 ;
