/*********************************************************************************
Initial conditions from MADX stitched model of SPS => sps_ti8 for q26 optics
*********************************************************************************/

betx0              =         2.16752127e+01 ;
bety0              =         1.02469671e+02 ;
alfx0              =        -5.56305437e-01 ;
alfy0              =         2.30777634e+00 ;
dx0                =        -2.44697804e-01 ;
dy0                =         0.00000000e+00 ;
x0                 =         1.42871781e-02 ;
y0                 =         0.00000000e+00 ;
px0                =        -1.13453167e-04 ;
py0                =         0.00000000e+00 ;
dpx0               =         6.21704079e-03 ;
dpy0               =         0.00000000e+00 ;
