/*********************************************************************************
Initial conditions from MADX stitched model of SPS => sps_tt66 for hiradmat optics
*********************************************************************************/

betx0              =       3.0945459443e+01 ;
bety0              =       1.0499825532e+02 ;
alfx0              =      -5.9115270214e-01 ;
alfy0              =       1.8914700800e+00 ;
dx0                =      -2.9803824659e-01 ;
dy0                =       0.0000000000e+00 ;
x0                 =       2.7232805890e-02 ;
y0                 =       0.0000000000e+00 ;
px0                =       4.5504112986e-04 ;
py0                =       0.0000000000e+00 ;
dpx0               =       4.5246449864e-03 ;
dpy0               =       0.0000000000e+00 ;
