alfx0 =  -3.368561e-01;
alfy0  = 4.077631e-02 ;
betx0  = 1.985962e+01 ;
bety0  = 1.259253e+04 ;
dpx0   = -3.608015e-02;
dpy0   = -9.187123e-04;
dx0    = -1.001105e+00;
dy0    = -5.617030e-01;
epsx  =  4.679202e-08 ;
epsy  =  7.547249e-09 ;

