/*********************************************************************************
Initial conditions from MADX stitched model of SPS => sps_tt40_tt41 for q20 optics
*********************************************************************************/

betx0              =       3.2153943299e+01 ;
bety0              =       1.0470425288e+02 ;
alfx0              =      -6.1627272769e-01 ;
alfy0              =       1.8766199374e+00 ;
dx0                =      -3.4730900141e-01 ;
dy0                =       0.0000000000e+00 ;
x0                 =       1.7242414457e-02 ;
y0                 =       0.0000000000e+00 ;
px0                =      -4.2015382442e-06 ;
py0                =       0.0000000000e+00 ;
dpx0               =       2.8049930421e-03 ;
dpy0               =       0.0000000000e+00 ;
