! Start of TT25 (exit of first splitter) as obtained from particle tracking simulation in SPS with COSE
alfx0 =  7.277490e-01;
alfy0  =-6.898279e-02;
betx0  = 2.735560e+01;
bety0  = 1.289333e+04;
dpx0   =-3.766251e-02;
dpy0   =-2.187310e-03;
dx0    =-3.301536e-01;
dy0    =-5.600741e-01;
epsx  =  4.715845e-08;
epsy  =  1.222928e-08;


! Old parameters as obtained from AFS repo
/*******
BETX0 = 14.36715282;
ALFX0 = 0.4826228748;
DX0 = 0.4200467766;
DPX0 = -0.04128114439;
BETY0 = 23373.85571;
ALFY0 = 0.002896863988;
DY0 = 0.5186398592;
DPY0 = -0.00114131626;
********/