/*********************************************************************
Initial conditions from MADX model of PSB extraction to BT lines
*********************************************************************/

betx0              =       1.3562451742e+01 ;
bety0              =       2.2279287651e+01 ;
alfx0              =      -1.4642840747e-01 ;
alfy0              =      -6.2246600568e-02 ;
dx0                =       2.5877823400e+00 ;
dy0                =      -2.1123764038e-01 ;
dpx0               =      -2.3670125307e-03 ;
dpy0               =      -3.6259853609e-02 ;
x0                 =       0.0000000000e+00 ;
px0                =       0.0000000000e+00 ;
