/*********************************************************************
Initial conditions from MADX model of PSB extraction to BT lines
*********************************************************************/

betx0              =       6.6042095647e+00 ;
bety0              =       2.3447166631e+01 ;
alfx0              =       7.4053689008e-01 ;
alfy0              =      -6.1820356926e-01 ;
dx0                =       1.6437152980e+00 ;
dy0                =       7.4551542777e-01 ;
dpx0               =      -2.2697702531e-01 ;
dpy0               =       3.6491044988e-02 ;
x0                 =       0.0000000000e+00 ;
px0                =       0.0000000000e+00 ;
