/*********************************************************************
Initial conditions from MADX model of PSB extraction to BT lines
*********************************************************************/

betx0              =       5.4301192295e+01 ;
bety0              =       3.2345807106e+01 ;
alfx0              =      -5.4900553657e+00 ;
alfy0              =      -1.6481539752e+00 ;
dx0                =       6.7284254736e-01 ;
dy0                =       4.5897255061e-01 ;
dpx0               =       3.0435744417e-01 ;
dpy0               =      -3.7599603242e-03 ;
x0                 =       0.0000000000e+00 ;
px0                =       0.0000000000e+00 ;
