/*********************************************************************
Initial conditions from MADX model of PSB extraction to BT lines
*********************************************************************/

betx0              =       5.6345952928e+00 ;
bety0              =       4.2464824396e+00 ;
alfx0              =      -6.0339614047e-02 ;
alfy0              =      -8.2747296848e-02 ;
dx0                =      -1.4986263073e+00 ;
dy0                =       0.0000000000e+00 ;
dpx0               =       3.9508643010e-02 ;
dpy0               =       0.0000000000e+00 ;
x0                 =       0.0000000000e+00 ;
px0                =       0.0000000000e+00 ;
