/*********************************************************************
Initial conditions from MADX model of ELENA extraction to LNE00
*********************************************************************/

betx0              =       4.2206355188e+00 ;
bety0              =       5.3865507299e+00 ;
alfx0              =       2.6283641638e+00 ;
alfy0              =       5.1980677676e-01 ;
dx0                =       6.1931877920e+01 ;
dy0                =       0.0000000000e+00 ;
dpx0               =       1.6019471347e+01 ;
dpy0               =       0.0000000000e+00 ;
x0                 =       0.0000000000e+00 ;
px0                =       0.0000000000e+00 ;
