/*********************************************************************
Initial conditions from Maptrack model of PS SX (no main unit fringe)
*********************************************************************/

betx0              =      63.440 ;
bety0              =      32.170 ;
alfx0              =      -8.886 ;
alfy0              =       0.220 ;
dx0                =       0.130 ;
dy0                =       0.000 ;
dpx0               =       0.00002 ;
dpy0               =       0.000 ;
x0                 =       0.000 ;
px0                =       0.000 ;