/*******
beta_Q20: beta0,  betx = 27.93108087 , alfx = 0.65054900,
                    bety = 120.05843813, alfy =-2.70513448,
                    dx=  -0.58140484, dpx=  0.01446870;

beta_Q20_meas: beta0,  betx =27.93108087,bety =  120.05843813,
                       alfx =    0.65054900, alfy =-2.70513448,
                       dx=   -0.51953884,dpx=    0.01357203,   
                       dy=0.07474805, dpy= -0.00011898;

! Used for `set_ini_conditions` macro
***********/

betx0 =  27.93108087;
alfx0 =  0.65054900;
bety0 =  120.05843813;
alfy0 =  -2.70513448;
dx0   =  -0.58140484;
dpx0  =  0.01446870;
