/*********************************************************************
Initial conditions from MADX model of PSB extraction to BT lines
*********************************************************************/

betx0              =       2.8471487589e+00 ;
bety0              =       1.5711289367e+00 ;
alfx0              =       1.3743148729e+00 ;
alfy0              =       3.9729227495e-01 ;
dx0                =       1.4018703795e+00 ;
dy0                =       1.0162188723e-01 ;
dpx0               =       2.8348041907e-02 ;
dpy0               =       5.4791777580e-02 ;
x0                 =      -1.4830438011e-04 ;
px0                =      -1.3342452910e-03 ;
