/*********************************************************************************
Initial conditions for LEIR injection
*********************************************************************************/

betx0              =       3.8000000000e+01 ;
bety0              =       2.2000000000e+01 ;
alfx0              =       2.2000000000e+00 ;
alfy0              =      -2.8000000000e+00 ;
dx0                =       8.7100000000e-01 ;
dy0                =       0.0000000000e+00 ;
dpx0               =      -2.1000000000e-02 ;
dpy0               =       0.0000000000e+00 ;
