/*********************************************************************
Initial conditions from MADX model of PSB extraction to BT lines
*********************************************************************/

betx0              =       5.9485382142e+00 ;
bety0              =       2.4109129313e+01 ;
alfx0              =       9.4158645865e-01 ;
alfy0              =      -9.7176587567e-01 ;
dx0                =       1.5813472532e+00 ;
dy0                =      -6.0110500862e-01 ;
dpx0               =      -2.4831559147e-01 ;
dpy0               =      -1.4239854432e-02 ;
x0                 =       0.0000000000e+00 ;
px0                =       0.0000000000e+00 ;
