/*********************************************************************
Initial conditions from MADX model of PSB extraction to BT lines
*********************************************************************/

betx0              =       4.4902359186e-01 ;
bety0              =       2.2005295382e+00 ;
alfx0              =       4.7092496778e-01 ;
alfy0              =       1.8258720758e-01 ;
dx0                =      -8.6373375559e-01 ;
dy0                =      -1.7639957496e-01 ;
dpx0               =       1.8635048095e+00 ;
dpy0               =       4.9053147567e-02 ;
x0                 =       1.5751863797e-03 ;
px0                =      -1.1657637593e-03 ;
