/*********************************************************************************
Initial conditions from MADX stitched model of PS extraction
*********************************************************************************/

betx0              =       5.3900000000e+01 ;
bety0              =       6.6400000000e+00 ;
alfx0              =      -5.3000000000e+00 ;
alfy0              =       2.5000000000e-01 ;
dx0                =      -4.4475000000e+00 ;
dy0                =      -1.2500000000e-01 ;
dpx0               =      -4.1750000000e-01 ;
dpy0               =       1.4000000000e-03 ;
