/*********************************************************************************
Initial conditions from MADX stitched model of SPS for LHC Q26 beam
*********************************************************************************/

betx0              = 16.59998050 ;
bety0              = 124.53729549 ;
alfx0              = 0.43799143 ;
alfy0              = -3.43864247 ;
dx0                = -0.34291026 ;
dy0                = 0.00000000 ;
x0                 = 0.27767286 ;
y0                 = 0.00000000 ;
dpx0               = 0.01967599 ;
dpy0               = 0.00000000 ;
px0                = 0.00000000 ;
py0                = 0.00000000 ;
