/*********************************************************************
Initial conditions from MADX model of PSB extraction to BT lines
*********************************************************************/

betx0              =       1.3377724904e+01 ;
bety0              =       2.1709766798e+01 ;
alfx0              =      -2.8576868818e-01 ;
alfy0              =       3.8674831695e-02 ;
dx0                =       2.6134737637e+00 ;
dy0                =       2.8721231614e-01 ;
dpx0               =       5.8863044419e-03 ;
dpy0               =      -2.3961765034e-02 ;
x0                 =      -7.4551870539e-03 ;
px0                =       1.8549192493e-04 ;
