/*********************************************************************
Initial conditions from MADX model of PSB extraction to BT lines
*********************************************************************/

betx0              =       1.2949925377e+01 ;
bety0              =       2.2296589634e+01 ;
alfx0              =      -2.1876468965e-01 ;
alfy0              =      -5.1051803216e-02 ;
dx0                =       2.5699365184e+00 ;
dy0                =       2.9519068796e-01 ;
dpx0               =       1.0858017613e-02 ;
dpy0               =      -2.2477591788e-02 ;
x0                 =       0.0000000000e+00 ;
px0                =       0.0000000000e+00 ;
