/*********************************************************************
Initial conditions from MADX model of PSB extraction to BT lines
*********************************************************************/

betx0              =       5.8185768491e+00 ;
bety0              =       4.4464566149e+00 ;
alfx0              =       1.8134045526e-01 ;
alfy0              =       2.4133437833e-01 ;
dx0                =      -1.5303493116e+00 ;
dy0                =       0.0000000000e+00 ;
dpx0               =      -3.1611137976e-03 ;
dpy0               =       0.0000000000e+00 ;
x0                 =      -3.6857624691e-05 ;
px0                =       1.9559962594e-05 ;
