/*********************************************************************
Initial conditions from MADX model of PSB extraction to BT lines
*********************************************************************/

betx0              =       1.0583346473e+01 ;
bety0              =       2.2252589959e+01 ;
alfx0              =      -1.6714525686e-01 ;
alfy0              =      -5.8229707470e-02 ;
dx0                =       2.5140740189e+00 ;
dy0                =       5.6580753080e-02 ;
dpx0               =       1.4915051131e-02 ;
dpy0               =      -2.8084217177e-04 ;
x0                 =       0.0000000000e+00 ;
px0                =       0.0000000000e+00 ;
