/*********************************************************************
Initial conditions from MADX model of PSB extraction to BT lines
*********************************************************************/

betx0              =       5.1743166700e+01 ;
bety0              =       3.2095997151e+01 ;
alfx0              =      -5.4080864300e+00 ;
alfy0              =      -1.6337379544e+00 ;
dx0                =       7.7632458689e-01 ;
dy0                =       2.7792138818e-01 ;
dpx0               =       3.1479514018e-01 ;
dpy0               =       3.5668078310e-02 ;
x0                 =       6.4550323289e-03 ;
px0                =       3.6898500647e-04 ;
