/*********************************************************************
Initial conditions from MADX model of PSB extraction to BT lines
*********************************************************************/

betx0              =       5.1767125152e+01 ;
bety0              =       3.2106084388e+01 ;
alfx0              =      -5.4101661028e+00 ;
alfy0              =      -1.6346011566e+00 ;
dx0                =       6.8402075881e-01 ;
dy0                =       2.8086348856e-01 ;
dpx0               =       3.0314394558e-01 ;
dpy0               =       3.5867931122e-02 ;
x0                 =       0.0000000000e+00 ;
px0                =       0.0000000000e+00 ;
