/*********************************************************************
Initial conditions from MADX model of PSB extraction to BT lines
*********************************************************************/

betx0              =       6.6656045936e+00 ;
bety0              =       2.1301992699e+01 ;
alfx0              =       2.6289825745e-01 ;
alfy0              =       6.7964164105e-01 ;
dx0                =       1.6626895206e+00 ;
dy0                =       1.7835641967e-01 ;
dpx0               =      -9.4716124375e-02 ;
dpy0               =       2.0268479109e-02 ;
x0                 =       0.0000000000e+00 ;
px0                =       0.0000000000e+00 ;
