 set, format="22.10e";
option, RBARC=FALSE;

EXTR.INITBETA0:  BETA0,
       BETX := betx0,
       ALFX := alfx0,
       BETY := bety0,
       ALFY := alfy0,
       DX   := dx0,
       DPX  := dpx0,
       DY   := dy0,
       DPY  := dpy0,
       X    := x0,
       Y    := y0,
       PX    := px0,
       PY    := py0;