! Start of TT20 as obtained from particle tracking simulation in SPS with COSE
alfx0 = -1.735810e+00 ;
alfy0  = -3.201112e+00;
betx0  =  2.450946e+01;
bety0  =  1.145989e+02;
dpx0   =  6.599651e-04;
dpy0   = -1.112548e-04;
dx0    =  1.697529e-03;
dy0    = -1.265754e-03;
epsx  =  4.770871e-08 ;
epsy  =  1.811746e-08 ;

! Old parameters as obtained from AFS repo
/*******
BETX0 = 46.4144684;
ALFX0 = -3.087019543;
DX0 = -0.229082543;
DPX0 = 0.01358783731;
BETY0 = 117.3299884;
ALFY0 = -3.251188218;
DY0 = 0.289;
DPY0 = 0.00348;
*******/