/*********************************************************************
Initial conditions from MADX model of PSB extraction to BT lines
*********************************************************************/

betx0              =       1.4296362694e+01 ;
bety0              =       2.1879041803e+01 ;
alfx0              =       7.9616100063e-01 ;
alfy0              =       2.0613247016e+00 ;
dx0                =       1.2927237425e+00 ;
dy0                =      -5.4826139271e-01 ;
dpx0               =       7.3714114415e-02 ;
dpy0               =       6.3875048613e-02 ;
x0                 =       0.0000000000e+00 ;
px0                =       0.0000000000e+00 ;
