/*********************************************************************
Initial conditions from MADX model of PSB extraction to BT lines
*********************************************************************/

betx0              =       4.5318079109e+01 ;
bety0              =       7.0177959967e+01 ;
alfx0              =      -4.9814904916e+00 ;
alfy0              =      -3.2399728156e+00 ;
dx0                =       4.8675365575e+00 ;
dy0                =       1.8011475425e-01 ;
dpx0               =       5.6369219976e-01 ;
dpy0               =       2.3669508280e-02 ;
x0                 =       0.0000000000e+00 ;
px0                =       0.0000000000e+00 ;
