/*********************************************************************
Initial conditions from MADX model of PSB extraction to BT lines
*********************************************************************/

betx0              =       4.8952879687e-01 ;
bety0              =       2.1910569838e+00 ;
alfx0              =       4.9189817995e-01 ;
alfy0              =       1.9117243301e-01 ;
dx0                =      -8.7475944443e-01 ;
dy0                =      -1.2681577021e-01 ;
dpx0               =       1.8083720253e+00 ;
dpy0               =       1.2209922726e-01 ;
x0                 =       0.0000000000e+00 ;
px0                =       0.0000000000e+00 ;
