/*********************************************************************
Initial conditions from MADX model of PSB extraction to BT lines
*********************************************************************/

betx0              =       5.6437989526e+00 ;
bety0              =       4.2404528769e+00 ;
alfx0              =      -5.9850126314e-02 ;
alfy0              =      -8.2510639976e-02 ;
dx0                =      -1.5010492930e+00 ;
dy0                =       0.0000000000e+00 ;
dpx0               =       4.5790916493e-02 ;
dpy0               =       0.0000000000e+00 ;
x0                 =       5.6107092234e-03 ;
px0                =      -4.4668926432e-05 ;
