/*********************************************************************
Initial conditions from MADX model of PSB extraction to BT lines
*********************************************************************/

betx0              =       8.3066363770e+00 ;
bety0              =       2.0345654990e+01 ;
alfx0              =       1.2300949808e-01 ;
alfy0              =       5.9592471994e-01 ;
dx0                =       1.8963546812e+00 ;
dy0                =      -5.4923257987e-01 ;
dpx0               =      -2.3565592999e-02 ;
dpy0               =       2.7051269391e-02 ;
x0                 =      -6.7601749950e-03 ;
px0                =      -2.8518700345e-05 ;
