/*********************************************************************
Initial conditions from MADX model of ELENA extraction to LNE00
*********************************************************************/

betx0              =       4.5711418978e+00 ;
bety0              =       1.1142216543e+00 ;
alfx0              =       2.2557346574e+00 ;
alfy0              =      -6.8647283304e-01 ;
dx0                =      -1.1688135092e+02 ;
dy0                =      -6.3846575005e-02 ;
dpx0               =      -3.5010479973e+01 ;
dpy0               =      -1.3559555468e-01 ;
x0                 =       0.0000000000e+00 ;
px0                =       0.0000000000e+00 ;
