/*********************************************************************
Initial conditions from MADX model of PSB extraction to BT lines
*********************************************************************/

betx0              =       6.5545251549e+01 ;
bety0              =       5.8943611711e+01 ;
alfx0              =      -3.6916203135e+00 ;
alfy0              =      -6.5227175312e+00 ;
dx0                =      -1.4586465339e+01 ;
dy0                =      -1.1988568213e+00 ;
dpx0               =      -7.9006852502e-01 ;
dpy0               =      -1.4272621501e-01 ;
x0                 =       0.0000000000e+00 ;
px0                =       0.0000000000e+00 ;
